{
  "single_enrollment": {
    "id": 1,
    "user_email": "bob@example.com",
    "user_name": "Bob Smith",
    "user_id": 1,
    "course_name": "My Course",
    "course_id": 1,
    "percentage_completed": 1,
    "expired": false,
    "is_free_trial": false,
    "completed": true,
    "started_at": "2018-01-01T01:01:00Z",
    "activated_at": "2018-01-01T01:01:00Z",
    "completed_at": "2018-01-31T01:01:00Z",
    "updated_at": "2018-01-31T01:01:00Z",
    "expiry_date": "2019-01-01T01:01:00Z"
  },
  "enrollment_list": {
    "items": [
      {
        "id": 1,
        "user_email": "bob@example.com",
        "user_name": "Bob Smith",
        "user_id": 1,
        "course_name": "My Course",
        "course_id": 1,
        "percentage_completed": 1,
        "expired": false,
        "is_free_trial": false,
        "completed": true,
        "started_at": "2018-01-01T01:01:00Z",
        "activated_at": "2018-01-01T01:01:00Z",
        "completed_at": "2018-01-31T01:01:00Z",
        "updated_at": "2018-01-31T01:01:00Z",
        "expiry_date": "2019-01-01T01:01:00Z"
      }
    ],
    "meta": {
      "pagination": {
        "current_page": 1,
        "next_page": 2,
        "prev_page": 0,
        "total_pages": 10,
        "total_items": 250,
        "entries_info": "1-10 of 10"
      }
    }
  }
}
