{
  "single_user": {
    "id": 1,
    "created_at": "2018-07-12T23:19:00.154Z",
    "first_name": "Bob",
    "last_name": "Smith",
    "full_name": "Bob Smith",
    "company": "The user's company",
    "email": "bob@example.com",
    "roles": ["affiliate"],
    "avatar_url": "https://example.com/avatar/123",
    "bio": "User's bio",
    "headline": "User's headline",
    "affiliate_code": "abc123",
    "external_source": "string",
    "affiliate_commission": 20,
    "affiliate_commission_type": "%",
    "affiliate_payout_email": "bob@example.com",
    "administered_course_ids": [[10, 20, 30]],
    "custom_profile_fields": [
      {
        "id": 1,
        "value": "887 909 9999",
        "label": "Phone",
        "custom_profile_field_definition_id": 1
      }
    ]
  },
  "user_list": {
    "items": [
      {
        "id": 1,
        "created_at": "2018-07-12T23:19:00.154Z",
        "first_name": "Bob",
        "last_name": "Smith",
        "full_name": "Bob Smith",
        "company": "The user's company",
        "email": "bob@example.com",
        "roles": ["affiliate"],
        "avatar_url": "https://example.com/avatar/123",
        "bio": "User's bio",
        "headline": "User's headline",
        "affiliate_code": "abc123",
        "external_source": "string",
        "affiliate_commission": 20,
        "affiliate_commission_type": "%",
        "affiliate_payout_email": "bob@example.com",
        "administered_course_ids": [[10, 20, 30]],
        "custom_profile_fields": [
          {
            "id": 1,
            "value": "887 909 9999",
            "label": "Phone",
            "custom_profile_field_definition_id": 1
          }
        ]
      }
    ],
    "meta": {
      "pagination": {
        "current_page": 1,
        "next_page": 2,
        "prev_page": 0,
        "total_pages": 10,
        "total_items": 250,
        "entries_info": "1-10 of 10"
      }
    }
  }
}
